Name,Age,Company,Building_Code,Phone_Number,Address
Chandani Chattopadhyay,78,"Pillai, Johar and Nehru",65036,885-014-3053,"177 Mehrotra Ports, Mumbai, MH 660551"
Mrs. Naval Menon,31,"Joshi, Dwivedi and Ganaka",1154,771.400.4313,"Apt. 420 315 Khan Street, Kolkata, OR 951871"
Gitanjali Trivedi,58,Dwivedi Pvt Ltd,385,1-150-041-1557,"Apt. 245 948 Gajaadhar Wall, Hyderabad, BR 429591"
Mrs. Nikita Shah,92,"Namboothiri, Kakkar and Verma",6330,182.950.9772,"Suite 088 47930 Talwar Neck, Thiruvananthapuram, TN 113573"
Sukanya Chaturvedi,32,Kakkar and Sons,22542,660.218.7574,"65983 Kannan Land, Bengaluru, OR 218393"
Gemine Kaul,65,Kapoor-Sethi,2479,1-876-992-6991,"Apt. 864 95786 Varman Ramp, New Delhi, DL 995796"
Miss Chandravati Devar,69,Dutta Corp,3344,(789) 304-3962,"93311 Deeptimay Dale, Visakhapatnam, AS 835824"
Gandharva Bharadwaj,37,Asan Group,974,244-522-6930,"030 Gangesh Hills, Mumbai, TN 640253"
Dhyaneshwar Achari,94,Trivedi Pvt Ltd,05802,983.248.3443,"Suite 305 9138 Ameyatma Landing, Kolkata, BR 882145"
Akshita Marar,40,Shah Ltd,20382,030.607.8514,"64197 Ahluwalia Manors, Visakhapatnam, RJ 556203"
Ankal Rana,49,Dhawan and Sons,38160,1-469-723-3810,"445 Bhat Mountain, Hyderabad, DD 763357"
