Name,Age,Company,Building_Code,Phone_Number,Address
Dhatri Rana IV,73,"Chaturvedi, Naik and Pandey",917,(707) 609-7842,"Apt. 278 32704 Akroor Summit, Bengaluru, OR 846260"
Anal Devar,70,Trivedi-Johar,498,520.520.2480,"034 Chaturbhuj Square, Kolkata, AR 237763"
Vasanti Iyengar Sr.,96,Arora-Bhattacharya,92313,974-767-9421,"438 Chatur Wall, Chennai, DN 820896"
Bodhan Varma,77,"Kapoor, Pothuvaal and Jain",1006,663.511.3686,"Apt. 362 46688 Saroja Locks, Chennai, TR 159201"
Rakesh Chopra,67,Gowda-Dwivedi,983,(347) 603-8236,"Suite 514 303 Kanak Village, Visakhapatnam, CH 061100"
Susheel Chopra,62,Saini-Shah,41649,612-666-8188,"Apt. 760 78533 Satish Crossing, Hyderabad, AS 093888"
Anal Nambeesan,71,Dubashi-Talwar,9285,(573) 719-6560,"1890 Achari Groves, New Delhi, RJ 536337"
Krishnadasa Pandey,34,"Ganaka, Naik and Khan",67589,606.928.1280,"99520 Kapoor Road, Chennai, MH 240253"
Apsara Verma,50,Bhattathiri-Dubashi,229,983-896-1259,"203 Kapoor Light, Bengaluru, JS 425763"
Dandak Adiga,75,"Bhat, Sinha and Singh",9467,237-070-2524,"Suite 175 1267 Dhanapati Courts, Bengaluru, CG 448963"
Jitender Devar IV,33,Tandon-Varman,7264,1-279-374-4210,"778 Anusuya Creek, New Delhi, HR 335211"
