Name,Age,Company,Building_Code,Phone_Number,Address
Mr. Swapnil Jha,64,"Adiga, Sinha and Kaul",784,357-161-1579,"Apt. 888 643 Naveen Hill, Thiruvananthapuram, PY 267338"
Bankim Kaniyar PhD,26,Somayaji Limited,163,863.684.4003,"993 Meena Common, Hyderabad, KL 354160"
Suman Mehrotra,27,Mukhopadhyay-Gill,21742,794.033.0325,"Apt. 642 538 Kaniyar Center, Chennai, ML 918829"
Adhiraj Ganaka,55,Pothuvaal and Sons,509,1-577-324-5251,"831 Chaturvedi Green, Chennai, UK 975745"
Gandharva Bhattathiri,28,Sharma-Kaur,40227,(251) 340-5619,"Suite 322 278 Deshpande Ford, Visakhapatnam, KA 102596"
Divakar Mehra DDS,80,Johar Group,8305,(711) 725-7241,"2015 Bheeshma Crossroad, Visakhapatnam, SK 683060"
Dhara Gandhi,68,Mishra-Menon,6066,1-930-120-1675,"Apt. 535 119 Gandhi Plaza, Bengaluru, ML 547156"
Mr. Abhaya Naik,53,Namboothiri and Sons,097,(017) 510-7971,"Suite 022 1494 Dhyanesh Mission, Chennai, CH 645274"
Vasanti Trivedi,51,Banerjee Ltd,2072,464.649.0609,"00788 Kocchar Shoal, Bengaluru, CG 779500"
Susheel Adiga,39,Bharadwaj-Mahajan,4862,117-997-8347,"Suite 018 99043 Shubhaprada Harbor, Bengaluru, DL 917241"
Dr. Ambar Gupta,26,"Ahluwalia, Tagore and Achari",43398,475.453.8392,"0550 Varma Islands, Mumbai, UK 856889"
