Name,Age,Company,Building_Code,Phone_Number,Address
Prasad Nair,53,Dutta Ltd,42022,1-183-721-8598,"Suite 027 9710 Mehrotra Isle, Visakhapatnam, NL 869047"
Bilva Gowda DVM,34,"Bandopadhyay, Somayaji and Sethi",9615,(153) 503-4411,"131 Suresh Radial, Hyderabad, HR 329866"
Bhima Patel,92,Talwar Brothers,4297,(661) 555-7730,"Apt. 459 98705 Nair Rapids, Bengaluru, PY 500531"
Chaaruchandra Chattopadhyay,91,Gupta Corp,84003,306-964-4418,"6473 Dutta Stream, New Delhi, GA 869277"
Priyala Dhawan Jr.,57,"Talwar, Agarwal and Chaturvedi",2723,(734) 085-9982,"77521 Bhupati Village, Chennai, GA 082705"
Anala Guha,38,"Kaul, Verma and Panicker",71700,045-504-1806,"Apt. 667 84246 Abhaidev Square, Bengaluru, DL 726131"
Bhargavi Bhat,25,"Desai, Saini and Johar",8109,909-185-5324,"Suite 296 981 Achari Trafficway, Mumbai, HR 114672"
Dinkar Chaturvedi,24,Acharya Pvt Ltd,32078,324.348.2146,"Apt. 266 5779 Sinha Drives, Bengaluru, CG 632858"
Shobhana Pillai PhD,80,"Varma, Nambeesan and Pothuvaal",7080,710.745.9631,"2006 Sucheta Drive, Chennai, BR 935269"
Girja Mishra,63,Kakkar Brothers,121,(644) 030-9229,"Suite 999 30044 Jain Court, Chennai, MH 647274"
Dr. Mangala Menon,89,Patel-Mehra,84136,249-787-6302,"1657 Ganaka Pass, Chennai, JK 919564"
