Name,Age,Company,Building_Code,Phone_Number,Address
Rageshwari Iyer,95,Somayaji Corp,440,345.141.1373,"532 Malik Skyway, Visakhapatnam, UP 623376"
Somu Kakkar,76,"Chattopadhyay, Menon and Talwar",1727,(976) 834-9530,"101 Varma Drive, Visakhapatnam, TR 441048"
Hiranya Varrier,37,Nayar-Pothuvaal,30059,(261) 562-5412,"616 Banerjee Ranch, Mumbai, CH 995691"
Mrs. Jagadish Prajapat,43,Mehrotra Corp,0125,(057) 715-1202,"Apt. 936 6505 Nambeesan Shore, Visakhapatnam, AP 645212"
Mohana Bharadwaj,27,Butt and Sons,0739,965.995.7391,"489 Sushma Gateway, Bengaluru, MN 985935"
Anal Iyengar,30,Menon Limited,868,447.857.2606,"330 Dubashi Gardens, Hyderabad, JS 906110"
Chandan Agarwal,68,Bhattathiri-Abbott,59093,501-333-3192,"0015 Birjesh Point, Bengaluru, AP 423739"
Narayan Chaturvedi,70,Johar Limited,97525,(676) 448-2714,"Suite 251 1759 Shukla Gardens, Chennai, AN 767704"
Krishna Pandey,78,Devar-Pandey,3334,1-460-137-3492,"Apt. 587 4861 Puneet Mountains, Thiruvananthapuram, WB 154777"
Jagdeep Butt,46,"Khan, Chaturvedi and Nehru",0195,108-863-6813,"Apt. 312 2238 Bala Street, Mumbai, PB 930561"
Mr. Chandi Iyer,26,"Kapoor, Arora and Verma",91902,1-032-559-0922,"395 Krishnadasa Knoll, Visakhapatnam, MZ 644099"
