Name,Age,Company,Building_Code,Phone_Number,Address
Devajyoti Kocchar,74,"Bhattathiri, Adiga and Namboothiri",2473,545-869-9754,"7680 Chandramani Mountains, Kolkata, CH 323601"
Adityanandana Chaturvedi,51,Mehra-Nambeesan,38514,609-513-7424,"090 Guha Views, Visakhapatnam, OR 242378"
Bhaanumati Banerjee,19,Dutta Group,6031,(227) 714-6658,"37167 Preity Drive, Kolkata, LD 257713"
Anunay Bhattacharya DDS,38,Banerjee Limited,35317,(439) 727-1852,"7664 Acharya Club, Thiruvananthapuram, KL 166580"
Mrs. Atreyi Desai,49,Nayar Corp,37111,175-243-1446,"05121 Sarala Flat, Kolkata, RJ 720391"
Sitara Singh,29,"Varman, Khatri and Khan",65011,925-002-7169,"74270 Bhooshan Ways, Chennai, CH 544554"
Chanda Shah,80,Bandopadhyay-Chaturvedi,57573,1-104-583-4962,"1665 Chandrakin Trail, Kolkata, JS 580932"
Hamsini Devar,98,"Bhat, Asan and Kaur",22826,(339) 083-8165,"Suite 190 0705 Bhudev Trail, Kolkata, RJ 915625"
Ojaswini Pilla,48,Reddy-Bharadwaj,669,(688) 648-6882,"Suite 925 6723 Bhudev Gateway, Bengaluru, OR 974024"
Bhaanumati Bharadwaj,35,Dwivedi-Chattopadhyay,88922,1-485-443-6977,"Suite 733 5692 Asan Motorway, Visakhapatnam, MH 737960"
Dhanadeepa Kaniyar,98,"Adiga, Sinha and Varma",99012,1-543-700-8695,"Suite 022 7605 Jitender Common, Mumbai, AS 368189"
