Name,Age,Company,Building_Code,Phone_Number,Address
Vimala Pothuvaal,96,Bharadwaj-Guneta,578,931.224.9003,"9879 Kaul Roads, Hyderabad, DL 373826"
Annapurna Varrier,88,Deshpande Limited,8277,900.888.0679,"825 Hiranmay Locks, Kolkata, TR 787864"
Rohana Arora,47,Gowda Limited,0946,1-423-711-6741,"4913 Namboothiri Locks, Chennai, AR 970249"
Mahendra Pilla I,73,Reddy Ltd,33608,274-623-0042,"9287 Joshi Row, Kolkata, CG 021712"
Indira Khan,23,Abbott Pvt Ltd,55288,638-269-7471,"Apt. 091 4165 Ghanaanand Glens, Thiruvananthapuram, HR 424460"
Minakshi Iyer PhD,82,"Kocchar, Butt and Johar",83153,1-296-893-3441,"Suite 816 0881 Gill Oval, Thiruvananthapuram, LD 223732"
Ms. Ramaa Kapoor,88,Pilla-Pillai,0576,1-226-563-1863,"Suite 750 941 Khanna Flat, Thiruvananthapuram, SK 473553"
Bharat Trivedi,60,Verma Ltd,029,130-911-2238,"Suite 417 2806 Butt Bridge, Hyderabad, GJ 951086"
Mandakini Varrier,95,Iyengar-Acharya,45331,854-787-7567,"Suite 633 7468 Girindra Drive, Bengaluru, JS 247017"
Bhaasvan Butt,29,"Marar, Chopra and Khanna",950,1-494-251-7877,"51602 Prajapat Trail, Chennai, MZ 801746"
Mrs. Aatmaja Ahuja,92,Nayar-Iyer,523,824-399-2843,"Apt. 296 384 Patel Way, New Delhi, CG 962362"
