Name,Age,Company,Building_Code,Phone_Number,Address
Acharyanandana Gill,72,Kocchar Group,1843,1-173-621-0487,"716 Puneet Wall, Kolkata, BR 615175"
Dharmaketu Khan,74,Sinha and Sons,9101,593.691.5038,"Apt. 021 233 Gowda Radial, Visakhapatnam, TN 025481"
Javas Tagore,61,Sharma Brothers,825,989.309.6848,"Apt. 849 917 Desai Cliff, New Delhi, MH 398083"
Dr. Devak Gupta,28,"Ahluwalia, Marar and Asan",941,(094) 340-2003,"Apt. 125 34732 Saini Ridges, Hyderabad, OR 614860"
Ms. Tanya Iyengar,54,Menon Brothers,856,(385) 409-9908,"Suite 391 881 Jagdeep Tunnel, New Delhi, ML 190208"
Rohit Khanna,39,Dwivedi Ltd,125,1-304-174-3683,"13754 Som Station, Chennai, DN 542262"
Budhil Saini,29,Saini Brothers,790,167-619-6856,"Suite 652 44853 Dhawan Land, Chennai, MP 330009"
Niro Khatri,24,Achari Pvt Ltd,5097,(732) 984-9654,"00861 Mahajan Knolls, Chennai, TN 157112"
Chandravati Acharya,57,Mishra-Malik,21076,1-675-693-6122,"Apt. 346 28952 Samir Course, Hyderabad, NL 856785"
Sanka Chaturvedi,87,Kaul-Reddy,681,1-097-430-5595,"Apt. 184 2580 Prasad Course, Bengaluru, MH 565428"
Ranjit Achari Sr.,40,Chopra and Sons,2461,496-862-9937,"56832 Khatri Flats, Mumbai, CH 892398"
