Name,Age,Company,Building_Code,Phone_Number,Address
Meghnad Sharma,94,Jha-Reddy,8179,1-650-169-2466,"88608 Pothuvaal Landing, Mumbai, MP 432284"
Gurdev Jha,95,"Nayar, Pothuvaal and Rana",79823,(314) 585-3332,"8165 Deependra Crossing, Mumbai, GJ 279821"
Bankimchandra Bhat DVM,97,Mehrotra Corp,94250,187.329.7233,"Apt. 407 5525 Nayar Ways, Kolkata, MZ 382617"
Gobinda Bhattathiri II,27,Mahajan-Saini,9180,1-566-292-9393,"Suite 207 0897 Abbott Wall, Chennai, UP 423587"
Aanjaneya Verma,25,Malik Group,7820,1-958-135-8343,"527 Enakshi Lodge, Visakhapatnam, LD 122507"
Amaranaath Menon,41,Panicker-Bhattathiri,03590,916.455.9215,"Apt. 584 24537 Chandravati Flat, Chennai, JS 861792"
Indra Dwivedi Jr.,99,Tandon-Jain,653,888.977.3518,"13841 Patel Mount, Chennai, AS 727074"
Shridevi Dutta DDS,87,"Reddy, Bhattathiri and Marar",7045,(825) 563-0091,"789 Nambeesan Cove, Hyderabad, PB 313636"
Kannan Nambeesan,45,Pillai and Sons,6802,637-935-6251,"632 Anagh Route, Thiruvananthapuram, AR 998226"
Sloka Tagore,25,Kakkar Pvt Ltd,651,795-637-0637,"4866 Mehra Falls, Thiruvananthapuram, WB 794329"
Chandani Talwar,19,Pilla Corp,047,493-409-0624,"157 Pandey Inlet, Chennai, KA 109401"
