Name,Age,Company,Building_Code,Phone_Number,Address
Sharmila Sharma,46,Mishra-Mehra,2576,1-405-275-5727,"227 Shridevi Springs, Bengaluru, OR 795559"
Lila Varman,80,Varman-Joshi,707,329.181.8274,"Apt. 982 670 Divya Groves, Kolkata, HP 016054"
Vidur Khatri Sr.,74,Reddy Group,150,446.630.9466,"Apt. 544 25298 Pilla Crescent, Bengaluru, MH 401841"
Sumitra Reddy,36,Dwivedi Limited,8039,(301) 566-6751,"753 Ekalavya Plain, Kolkata, UK 691154"
Harinarayan Varman,97,Marar-Khan,36084,1-119-886-6620,"Suite 406 5600 Asan Shore, Thiruvananthapuram, TN 100390"
Dr. Leela Shah,65,"Tagore, Agarwal and Pillai",69436,(897) 451-6037,"Suite 701 34129 Bharadwaj Wells, Hyderabad, SK 190932"
Sunita Chattopadhyay,20,Banerjee and Sons,9846,895.854.9016,"429 Rana Street, Chennai, GA 029196"
Saroja Gowda MD,88,Reddy and Sons,521,1-282-065-2874,"9462 Ekaparnika Locks, Mumbai, CG 036340"
Arya Kaul,84,Namboothiri Corp,650,(607) 925-6772,"34620 Patel Creek, Thiruvananthapuram, UK 534225"
Mahendra Kaur Sr.,79,"Malik, Joshi and Khatri",0487,661-813-3865,"Suite 770 7257 Guha Lodge, New Delhi, AN 052448"
Agnimitra Gill,25,Pilla-Jain,8054,(439) 428-2117,"353 Adhiraj Flat, New Delhi, AR 544829"
