Name,Age,Company,Building_Code,Phone_Number,Address
Aaryan Patel,80,"Dwivedi, Kaul and Gandhi",7263,378.254.2979,"Suite 019 423 Bandopadhyay Divide, Visakhapatnam, MN 540786"
Chandraayan Talwar,47,"Chattopadhyay, Nehru and Naik",2818,1-109-657-2857,"38673 Varma Glens, Kolkata, KL 795633"
Bhaswar Singh,30,Nair Ltd,4075,979.287.8354,"Apt. 504 039 Vedanga Freeway, Visakhapatnam, AS 919450"
Bhagvan Kaul,97,Ganaka-Chattopadhyay,904,(180) 443-2815,"73219 Chandra Expressway, Hyderabad, MH 868649"
Jagathi Sinha,42,Sinha Pvt Ltd,34583,330.303.7666,"Suite 001 639 Dhanadeepa Drives, New Delhi, TN 605997"
Siddarth Somayaji,23,Pothuvaal Limited,8236,(684) 782-6668,"Suite 929 66455 Verma Club, Kolkata, UK 799666"
Bhaves Mukhopadhyay,79,"Khanna, Marar and Iyengar",45695,019.045.8814,"9798 Pilla Ville, Visakhapatnam, GA 573837"
Mrs. Damodara Ganaka,96,"Rana, Patel and Khan",7926,958.037.3484,"Suite 146 4702 Chaturvedi Fords, Thiruvananthapuram, UP 684786"
Niro Marar,18,"Chaturvedi, Mehrotra and Johar",947,240-126-1431,"567 Lakshmi Estate, New Delhi, GA 344745"
Niro Khanna,51,Pilla Limited,630,1-340-231-8351,"Suite 303 980 Arora Greens, Visakhapatnam, MZ 505778"
Garuda Patil II,24,Adiga-Sinha,816,1-971-362-1886,"6037 Panicker Point, Thiruvananthapuram, GA 571955"
